{
"spider":"https://gitlab.com/wcy_tv/zkhgkff865675/-/blob/master/0723.jar",



"lives":[{"group":"redirect","channels":[{"name":"redirect","urls":["proxy://do=live&type=txt&ext=aHR0cHM6Ly9naXRsYWIuY29tL3djeV90di96a2hna2ZmODY1Njc1Ly0vcmF3L21hc3Rlci90dmxpc3Q"]}]}],


"sites":[
],



"parses": [
{"name": "解析聚合","type": 3,"url": "Demo"},
{"name": "Json并发","type": 2,"url": "Parallel"}, 
{"name": "Json轮询","type": 2,"url": "Sequence"}, 
{"name": "GGTV快速","type": 1,"url": "https://play.fuqizhishi.com/ganggang/API.php?appkey=QQ172598364&url="}, 
{"name": "OKjx综合","type": 0,"url": "https://okjx.cc/?url="}
],

"flags": ["youku", "qq", "iqiyi", "imgo", "xueren", "m1905", "qiyi", "letv", "sohu", "tudou", "pptv", "dbm3u8", "mgtv", "wasu", "bilibili", "le", "duoduozy", "renrenmi", "xigua", "优酷", "西瓜", "乐视", "芒果", "腾讯", "爱奇艺", "奇艺", "ltnb", "rx", "CL4K", "xfyun", "wuduzy", "哔哩哔哩", "哔哩"],
	"ijk": [{
		"group": "软解码",
		"options": [{
			"category": 4,
			"name": "opensles",
			"value": "0"
		}, {
			"category": 4,
			"name": "overlay-format",
			"value": "842225234"
		}, {
			"category": 4,
			"name": "framedrop",
			"value": "1"
		}, {
			"category": 4,
			"name": "soundtouch",
			"value": "1"
		}, {
			"category": 4,
			"name": "start-on-prepared",
			"value": "1"
		}, {
			"category": 1,
			"name": "http-detect-range-support",
			"value": "0"
		}, {
			"category": 1,
			"name": "fflags",
			"value": "fastseek"
		}, {
			"category": 2,
			"name": "skip_loop_filter",
			"value": "48"
		}, {
			"category": 4,
			"name": "reconnect",
			"value": "1"
		}, {
			"category": 4,
			"name": "enable-accurate-seek",
			"value": "0"
		}, {
			"category": 4,
			"name": "mediacodec",
			"value": "0"
		}, {
			"category": 4,
			"name": "mediacodec-auto-rotate",
			"value": "0"
		}, {
			"category": 4,
			"name": "mediacodec-handle-resolution-change",
			"value": "0"
		}, {
			"category": 4,
			"name": "mediacodec-hevc",
			"value": "0"
		}, {
			"category": 1,
			"name": "dns_cache_timeout",
			"value": "600000000"
		}]
	}, {
		"group": "硬解码",
		"options": [{
			"category": 4,
			"name": "opensles",
			"value": "0"
		}, {
			"category": 4,
			"name": "overlay-format",
			"value": "842225234"
		}, {
			"category": 4,
			"name": "framedrop",
			"value": "1"
		}, {
			"category": 4,
			"name": "soundtouch",
			"value": "1"
		}, {
			"category": 4,
			"name": "start-on-prepared",
			"value": "1"
		}, {
			"category": 1,
			"name": "http-detect-range-support",
			"value": "0"
		}, {
			"category": 1,
			"name": "fflags",
			"value": "fastseek"
		}, {
			"category": 2,
			"name": "skip_loop_filter",
			"value": "48"
		}, {
			"category": 4,
			"name": "reconnect",
			"value": "1"
		}, {
			"category": 4,
			"name": "enable-accurate-seek",
			"value": "0"
		}, {
			"category": 4,
			"name": "mediacodec",
			"value": "1"
		}, {
			"category": 4,
			"name": "mediacodec-auto-rotate",
			"value": "1"
		}, {
			"category": 4,
			"name": "mediacodec-handle-resolution-change",
			"value": "1"
		}, {
			"category": 4,
			"name": "mediacodec-hevc",
			"value": "1"
		}, {
			"category": 1,
			"name": "dns_cache_timeout",
			"value": "600000000"
		}]
	}],






"wallpaper":"",


"ads":["mimg.0c1q0l.cn","www.googletagmanager.com","www.google-analytics.com","mc.usihnbcq.cn","mg.g1mm3d.cn","mscs.svaeuzh.cn","cnzz.hhttm.top","tp.vinuxhome.com","cnzz.mmstat.com","www.baihuillq.com","s23.cnzz.com","z3.cnzz.com","c.cnzz.com","stj.v1vo.top","z12.cnzz.com","img.mosflower.cn","tips.gamevvip.com","ehwe.yhdtns.com","xdn.cqqc3.com","www.jixunkyy.cn","sp.chemacid.cn","hm.baidu.com","s9.cnzz.com","z6.cnzz.com","um.cavuc.com","mav.mavuz.com","wofwk.aoidf3.com","z5.cnzz.com","xc.hubeijieshikj.cn","tj.tianwenhu.com","xg.gars57.cn","k.jinxiuzhilv.com","cdn.bootcss.com","ppl.xunzhuo123.com","xomk.jiangjunmh.top","img.xunzhuo123.com","z1.cnzz.com","s13.cnzz.com","xg.huataisangao.cn","z7.cnzz.com","xg.huataisangao.cn","z2.cnzz.com","s96.cnzz.com","q11.cnzz.com","thy.dacedsfa.cn","xg.whsbpw.cn","s19.cnzz.com","z8.cnzz.com","s4.cnzz.com","f5w.as12df.top","ae01.alicdn.com","www.92424.cn","k.wudejia.com","vivovip.mmszxc.top","qiu.xixiqiu.com","cdnjs.hnfenxun.com","cms.qdwght.com"]
}
